M48
;Layer_Color=9474304
;FILE_FORMAT=4:2
METRIC
;TYPE=PLATED
T1F00S00C0.70
T2F00S00C0.90
T3F00S00C0.94
T4F00S00C1.00
T5F00S00C1.02
T6F00S00C1.10
T7F00S00C2.70
;TYPE=NON_PLATED
T8F00S00C3.20
%
T01
X005778Y000440
Y000694
Y000948
Y001202
Y001456
X006613Y001158
X007387Y001159
X008222Y001268
Y001014
Y000760
Y000506
Y001783
Y002036
Y002291
Y002544
Y002799
Y003052
Y003306
X007200Y003100
X006945Y003640
X006367Y004667
X007814Y004683
X005778Y002933
Y002680
Y002425
Y002172
Y001710
X003743Y001662
X003741Y002647
X002994Y004772
X001524Y004368
X005088Y004340
X002068Y005603
T02
X007565Y004778
Y005033
Y005287
X008328
Y005033
Y004778
Y005540
X007565
T03
X006443Y002581
X006697
X007200Y003385
Y003638
X002067Y005873
Y006127
X007840Y006000
X008094
T04
X005088Y004667
X005342
T05
X005500Y000441
Y000695
Y000949
Y001203
Y001457
X008500Y001266
Y001012
Y000759
Y000505
X009500Y003138
Y003392
Y003646
Y003900
X008500Y003305
Y003051
Y002797
Y002543
Y002289
Y002035
Y001781
X005500Y001711
Y002173
Y002427
Y002681
Y002935
T06
X003800Y000500
X009500Y005200
X009400Y001700
X005500Y003542
X000500Y003500
Y002720
Y005100
X003728Y006000
X006995
X008700
T07
X005851Y005176
X004835
T08
X000500Y000500
X009500
X000500Y006000
X009500
M30
