G04*
G04 #@! TF.GenerationSoftware,Altium Limited,Altium Designer,19.0.15 (446)*
G04*
G04 Layer_Physical_Order=1*
G04 Layer_Color=65280*
%FSAX42Y42*%
%MOMM*%
G71*
G01*
G75*
%ADD10R,1.27X1.27*%
%ADD11R,1.80X0.40*%
%ADD12R,1.52X1.52*%
%ADD13R,1.52X1.52*%
%ADD14R,1.27X1.27*%
%ADD15R,1.00X0.65*%
%ADD16C,0.40*%
%ADD17C,3.20*%
%ADD18R,1.52X1.52*%
%ADD19C,1.52*%
%ADD20C,3.00*%
%ADD21C,1.50*%
%ADD22R,1.50X1.50*%
%ADD23C,3.50*%
%ADD24C,1.80*%
%ADD25R,1.47X1.47*%
%ADD26C,1.47*%
%ADD27R,1.47X1.47*%
%ADD28C,1.20*%
G36*
X009800Y003900D02*
Y003600D01*
X009607D01*
X009600Y003611D01*
X009603Y003618D01*
X009607Y003646D01*
X009603Y003674D01*
X009593Y003699D01*
X009576Y003722D01*
X009553Y003739D01*
X009528Y003749D01*
X009500Y003753D01*
X009472Y003749D01*
X009447Y003739D01*
X009424Y003722D01*
X009407Y003699D01*
X009397Y003674D01*
X009393Y003646D01*
X009397Y003618D01*
X009400Y003611D01*
X009393Y003600D01*
X007967Y003600D01*
X007667Y003900D01*
X004300Y003900D01*
Y006300D01*
X009800D01*
Y003900D01*
D02*
G37*
G36*
X004200Y003800D02*
X007488Y003800D01*
X007788Y003500D01*
X009451Y003500D01*
X009453Y003487D01*
X009447Y003485D01*
X009424Y003468D01*
X009407Y003445D01*
X009397Y003420D01*
X009393Y003392D01*
X009397Y003364D01*
X009407Y003339D01*
X009424Y003316D01*
X009447Y003299D01*
X009472Y003289D01*
X009500Y003285D01*
X009528Y003289D01*
X009553Y003299D01*
X009576Y003316D01*
X009593Y003339D01*
X009603Y003364D01*
X009607Y003392D01*
X009603Y003420D01*
X009593Y003445D01*
X009576Y003468D01*
X009553Y003485D01*
X009547Y003487D01*
X009549Y003500D01*
X009800D01*
Y000200D01*
X000200D01*
Y006300D01*
X004200D01*
Y003800D01*
D02*
G37*
%LPC*%
G36*
X008700Y006181D02*
X008665Y006177D01*
X008631Y006167D01*
X008600Y006150D01*
X008572Y006128D01*
X008550Y006100D01*
X008533Y006069D01*
X008527Y006051D01*
X008198D01*
Y006104D01*
X007991D01*
Y005896D01*
X008044D01*
Y005638D01*
X008047Y005618D01*
X008058Y005602D01*
X008156Y005504D01*
X008172Y005493D01*
X008192Y005490D01*
X008235D01*
X008236Y005488D01*
X008253Y005466D01*
X008275Y005449D01*
X008300Y005438D01*
X008328Y005435D01*
X008355Y005438D01*
X008380Y005449D01*
X008402Y005466D01*
X008419Y005488D01*
X008430Y005513D01*
X008433Y005540D01*
X008430Y005568D01*
X008419Y005593D01*
X008402Y005615D01*
X008380Y005632D01*
X008355Y005643D01*
X008328Y005646D01*
X008300Y005643D01*
X008275Y005632D01*
X008253Y005615D01*
X008236Y005593D01*
X008235Y005591D01*
X008213D01*
X008145Y005659D01*
Y005896D01*
X008198D01*
Y005949D01*
X008527D01*
X008533Y005931D01*
X008550Y005900D01*
X008572Y005872D01*
X008600Y005850D01*
X008631Y005833D01*
X008665Y005823D01*
X008700Y005819D01*
X008735Y005823D01*
X008769Y005833D01*
X008800Y005850D01*
X008828Y005872D01*
X008850Y005900D01*
X008867Y005931D01*
X008877Y005965D01*
X008881Y006000D01*
X008877Y006035D01*
X008867Y006069D01*
X008850Y006100D01*
X008828Y006128D01*
X008800Y006150D01*
X008769Y006167D01*
X008735Y006177D01*
X008700Y006181D01*
D02*
G37*
G36*
X007840Y006105D02*
X007813Y006101D01*
X007788Y006091D01*
X007767Y006074D01*
X007750Y006052D01*
X007740Y006027D01*
X007736Y006000D01*
X007740Y005973D01*
X007750Y005948D01*
X007767Y005926D01*
X007788Y005909D01*
X007813Y005899D01*
X007840Y005895D01*
X007868Y005899D01*
X007893Y005909D01*
X007914Y005926D01*
X007931Y005948D01*
X007941Y005973D01*
X007945Y006000D01*
X007941Y006027D01*
X007931Y006052D01*
X007914Y006074D01*
X007893Y006091D01*
X007868Y006101D01*
X007840Y006105D01*
D02*
G37*
G36*
X009500Y006191D02*
X009463Y006187D01*
X009427Y006176D01*
X009394Y006159D01*
X009365Y006135D01*
X009341Y006106D01*
X009324Y006073D01*
X009313Y006037D01*
X009309Y006000D01*
X009313Y005963D01*
X009324Y005927D01*
X009341Y005894D01*
X009365Y005865D01*
X009394Y005841D01*
X009427Y005824D01*
X009463Y005813D01*
X009500Y005809D01*
X009537Y005813D01*
X009573Y005824D01*
X009606Y005841D01*
X009635Y005865D01*
X009659Y005894D01*
X009676Y005927D01*
X009687Y005963D01*
X009691Y006000D01*
X009687Y006037D01*
X009676Y006073D01*
X009659Y006106D01*
X009635Y006135D01*
X009606Y006159D01*
X009573Y006176D01*
X009537Y006187D01*
X009500Y006191D01*
D02*
G37*
G36*
X006995Y006181D02*
X006960Y006177D01*
X006926Y006167D01*
X006895Y006150D01*
X006867Y006128D01*
X006845Y006100D01*
X006828Y006069D01*
X006818Y006035D01*
X006814Y006000D01*
X006818Y005965D01*
X006828Y005931D01*
X006845Y005900D01*
X006867Y005872D01*
X006895Y005850D01*
X006926Y005833D01*
X006960Y005823D01*
X006995Y005819D01*
X007030Y005823D01*
X007064Y005833D01*
X007095Y005850D01*
X007123Y005872D01*
X007145Y005900D01*
X007162Y005931D01*
X007168Y005949D01*
X007301D01*
X007517Y005734D01*
Y005646D01*
X007461D01*
Y005435D01*
X007671D01*
Y005646D01*
X007618D01*
Y005755D01*
X007615Y005775D01*
X007604Y005791D01*
X007359Y006036D01*
X007342Y006047D01*
X007322Y006051D01*
X007168D01*
X007162Y006069D01*
X007145Y006100D01*
X007123Y006128D01*
X007095Y006150D01*
X007064Y006167D01*
X007030Y006177D01*
X006995Y006181D01*
D02*
G37*
G36*
X009513Y005375D02*
Y005213D01*
X009675D01*
X009673Y005234D01*
X009663Y005267D01*
X009647Y005298D01*
X009625Y005325D01*
X009598Y005347D01*
X009567Y005363D01*
X009534Y005373D01*
X009513Y005375D01*
D02*
G37*
G36*
X009487D02*
X009466Y005373D01*
X009433Y005363D01*
X009402Y005347D01*
X009375Y005325D01*
X009353Y005298D01*
X009337Y005267D01*
X009327Y005234D01*
X009325Y005213D01*
X009487D01*
Y005375D01*
D02*
G37*
G36*
X007153Y005626D02*
X006785D01*
X006765Y005622D01*
X006749Y005611D01*
X006690Y005552D01*
X006679Y005535D01*
X006675Y005516D01*
Y005458D01*
X006632D01*
Y005272D01*
X006640D01*
X006645Y005260D01*
X006636Y005251D01*
X006496D01*
Y005039D01*
X006636D01*
X006650Y005025D01*
X006645Y005014D01*
X006496D01*
Y004801D01*
X006550D01*
Y004773D01*
X006495D01*
Y004718D01*
X006441D01*
X006431Y004731D01*
X006412Y004746D01*
X006390Y004755D01*
X006367Y004758D01*
X006344Y004755D01*
X006322Y004746D01*
X006303Y004731D01*
X006288Y004712D01*
X006279Y004690D01*
X006276Y004667D01*
X006279Y004644D01*
X006288Y004622D01*
X006303Y004603D01*
X006322Y004588D01*
X006344Y004579D01*
X006367Y004576D01*
X006390Y004579D01*
X006412Y004588D01*
X006431Y004603D01*
X006441Y004616D01*
X006495D01*
Y004561D01*
X006708D01*
Y004773D01*
X006652D01*
Y004801D01*
X006708D01*
Y004950D01*
X006720Y004955D01*
X006804Y004871D01*
X006820Y004860D01*
X006826Y004859D01*
Y004801D01*
X006882D01*
Y004773D01*
X006825D01*
Y004561D01*
X007038D01*
Y004773D01*
X006983D01*
Y004801D01*
X007039D01*
Y005014D01*
X006826D01*
Y005010D01*
X006815Y005005D01*
X006708Y005111D01*
Y005179D01*
X006762Y005232D01*
X006773Y005249D01*
X006777Y005268D01*
Y005272D01*
X006819D01*
Y005458D01*
X006777D01*
Y005495D01*
X006806Y005524D01*
X007131D01*
X007405Y005250D01*
X007421Y005239D01*
X007441Y005236D01*
X007473D01*
X007474Y005234D01*
X007481Y005224D01*
X007476Y005212D01*
X007292D01*
X007104Y005401D01*
X007087Y005412D01*
X007068Y005416D01*
X007033D01*
Y005458D01*
X006846D01*
Y005272D01*
X007033D01*
Y005314D01*
X007046D01*
X007235Y005125D01*
X007251Y005114D01*
X007271Y005111D01*
X007477D01*
X007483Y005098D01*
X007474Y005085D01*
X007463Y005060D01*
X007460Y005033D01*
X007463Y005005D01*
X007474Y004980D01*
X007482Y004969D01*
X007476Y004956D01*
X007339D01*
X007114Y005181D01*
X007097Y005192D01*
X007078Y005196D01*
X007039D01*
Y005251D01*
X006826D01*
Y005039D01*
X007039D01*
Y005094D01*
X007056D01*
X007281Y004869D01*
X007298Y004858D01*
X007318Y004854D01*
X007475D01*
X007481Y004841D01*
X007474Y004831D01*
X007463Y004806D01*
X007460Y004778D01*
X007463Y004751D01*
X007474Y004726D01*
X007491Y004704D01*
X007513Y004687D01*
X007538Y004676D01*
X007565Y004673D01*
X007593Y004676D01*
X007618Y004687D01*
X007640Y004704D01*
X007657Y004726D01*
X007668Y004751D01*
X007671Y004778D01*
X007668Y004806D01*
X007657Y004831D01*
X007650Y004841D01*
X007656Y004854D01*
X008237D01*
X008243Y004841D01*
X008236Y004831D01*
X008225Y004806D01*
X008222Y004778D01*
X008225Y004751D01*
X008236Y004726D01*
X008253Y004704D01*
X008275Y004687D01*
X008300Y004676D01*
X008328Y004673D01*
X008355Y004676D01*
X008380Y004687D01*
X008402Y004704D01*
X008419Y004726D01*
X008430Y004751D01*
X008433Y004778D01*
X008430Y004806D01*
X008419Y004831D01*
X008412Y004841D01*
X008418Y004854D01*
X008506D01*
X008621Y004739D01*
Y004599D01*
X008834D01*
Y004654D01*
X008851D01*
Y004599D01*
X009064D01*
Y004811D01*
X008851D01*
Y004756D01*
X008834D01*
Y004811D01*
X008693D01*
X008563Y004941D01*
X008547Y004952D01*
X008527Y004956D01*
X008417D01*
X008411Y004969D01*
X008419Y004980D01*
X008420Y004982D01*
X008621D01*
Y004929D01*
X008834D01*
Y005141D01*
X008621D01*
Y005083D01*
X008420D01*
X008419Y005085D01*
X008402Y005107D01*
X008380Y005124D01*
X008355Y005135D01*
X008328Y005138D01*
X008300Y005135D01*
X008275Y005124D01*
X008253Y005107D01*
X008236Y005085D01*
X008235Y005083D01*
X007795D01*
X007681Y005198D01*
X007664Y005209D01*
X007655Y005210D01*
X007650Y005224D01*
X007657Y005234D01*
X007668Y005259D01*
X007671Y005287D01*
X007668Y005314D01*
X007657Y005339D01*
X007640Y005361D01*
X007618Y005378D01*
X007593Y005389D01*
X007565Y005392D01*
X007538Y005389D01*
X007513Y005378D01*
X007491Y005361D01*
X007474Y005340D01*
X007466Y005339D01*
X007461Y005338D01*
X007189Y005611D01*
X007172Y005622D01*
X007153Y005626D01*
D02*
G37*
G36*
X008328Y005392D02*
X008300Y005389D01*
X008275Y005378D01*
X008253Y005361D01*
X008236Y005339D01*
X008225Y005314D01*
X008222Y005287D01*
X008225Y005259D01*
X008236Y005234D01*
X008253Y005212D01*
X008275Y005195D01*
X008300Y005184D01*
X008328Y005181D01*
X008355Y005184D01*
X008380Y005195D01*
X008402Y005212D01*
X008419Y005234D01*
X008430Y005259D01*
X008433Y005287D01*
X008430Y005314D01*
X008419Y005339D01*
X008402Y005361D01*
X008380Y005378D01*
X008355Y005389D01*
X008328Y005392D01*
D02*
G37*
G36*
X009059Y005137D02*
X008970D01*
Y005048D01*
X009059D01*
Y005137D01*
D02*
G37*
G36*
X008945D02*
X008856D01*
Y005048D01*
X008945D01*
Y005137D01*
D02*
G37*
G36*
X009675Y005187D02*
X009513D01*
Y005025D01*
X009534Y005027D01*
X009567Y005037D01*
X009598Y005053D01*
X009625Y005075D01*
X009647Y005102D01*
X009663Y005133D01*
X009673Y005166D01*
X009675Y005187D01*
D02*
G37*
G36*
X009487D02*
X009325D01*
X009327Y005166D01*
X009337Y005133D01*
X009353Y005102D01*
X009375Y005075D01*
X009402Y005053D01*
X009433Y005037D01*
X009466Y005027D01*
X009487Y005025D01*
Y005187D01*
D02*
G37*
G36*
X005851Y005381D02*
X005810Y005378D01*
X005772Y005366D01*
X005736Y005347D01*
X005705Y005321D01*
X005679Y005290D01*
X005660Y005254D01*
X005648Y005216D01*
X005645Y005176D01*
X005648Y005135D01*
X005660Y005097D01*
X005679Y005061D01*
X005705Y005030D01*
X005736Y005004D01*
X005772Y004985D01*
X005810Y004973D01*
X005851Y004970D01*
X005891Y004973D01*
X005929Y004985D01*
X005965Y005004D01*
X005996Y005030D01*
X006022Y005061D01*
X006041Y005097D01*
X006053Y005135D01*
X006056Y005176D01*
X006053Y005216D01*
X006041Y005254D01*
X006022Y005290D01*
X005996Y005321D01*
X005965Y005347D01*
X005929Y005366D01*
X005891Y005378D01*
X005851Y005381D01*
D02*
G37*
G36*
X004835D02*
X004794Y005378D01*
X004756Y005366D01*
X004720Y005347D01*
X004689Y005321D01*
X004663Y005290D01*
X004644Y005254D01*
X004632Y005216D01*
X004629Y005176D01*
X004632Y005135D01*
X004644Y005097D01*
X004663Y005061D01*
X004689Y005030D01*
X004720Y005004D01*
X004756Y004985D01*
X004794Y004973D01*
X004835Y004970D01*
X004875Y004973D01*
X004913Y004985D01*
X004949Y005004D01*
X004980Y005030D01*
X005006Y005061D01*
X005025Y005097D01*
X005037Y005135D01*
X005040Y005176D01*
X005037Y005216D01*
X005025Y005254D01*
X005006Y005290D01*
X004980Y005321D01*
X004949Y005347D01*
X004913Y005366D01*
X004875Y005378D01*
X004835Y005381D01*
D02*
G37*
G36*
X009059Y005022D02*
X008970D01*
Y004933D01*
X009059D01*
Y005022D01*
D02*
G37*
G36*
X008945D02*
X008856D01*
Y004933D01*
X008945D01*
Y005022D01*
D02*
G37*
G36*
X005101Y004782D02*
Y004680D01*
X005203D01*
X005201Y004698D01*
X005189Y004726D01*
X005171Y004750D01*
X005147Y004768D01*
X005119Y004780D01*
X005101Y004782D01*
D02*
G37*
G36*
X005076Y004782D02*
X005058Y004780D01*
X005030Y004768D01*
X005006Y004750D01*
X004988Y004726D01*
X004976Y004698D01*
X004974Y004680D01*
X005076D01*
Y004782D01*
D02*
G37*
G36*
Y004655D02*
X004974D01*
X004976Y004637D01*
X004988Y004609D01*
X005006Y004585D01*
X005030Y004567D01*
X005058Y004555D01*
X005076Y004553D01*
Y004655D01*
D02*
G37*
G36*
X005203D02*
X005101D01*
Y004553D01*
X005119Y004555D01*
X005147Y004567D01*
X005171Y004585D01*
X005189Y004609D01*
X005201Y004637D01*
X005203Y004655D01*
D02*
G37*
G36*
X005342Y004789D02*
X005311Y004784D01*
X005282Y004772D01*
X005257Y004753D01*
X005238Y004728D01*
X005226Y004699D01*
X005221Y004667D01*
X005226Y004636D01*
X005238Y004607D01*
X005257Y004582D01*
X005282Y004563D01*
X005311Y004551D01*
X005342Y004546D01*
X005374Y004551D01*
X005403Y004563D01*
X005428Y004582D01*
X005447Y004607D01*
X005459Y004636D01*
X005464Y004667D01*
X005459Y004699D01*
X005447Y004728D01*
X005428Y004753D01*
X005403Y004772D01*
X005374Y004784D01*
X005342Y004789D01*
D02*
G37*
G36*
X005100Y004424D02*
Y004353D01*
X005172D01*
X005171Y004362D01*
X005162Y004383D01*
X005148Y004401D01*
X005131Y004415D01*
X005110Y004423D01*
X005100Y004424D01*
D02*
G37*
G36*
X005075D02*
X005065Y004423D01*
X005044Y004415D01*
X005027Y004401D01*
X005013Y004383D01*
X005004Y004362D01*
X005003Y004353D01*
X005075D01*
Y004424D01*
D02*
G37*
G36*
X007814Y004774D02*
X007791Y004771D01*
X007769Y004762D01*
X007750Y004748D01*
X007735Y004729D01*
X007726Y004707D01*
X007723Y004683D01*
X007726Y004660D01*
X007735Y004638D01*
X007750Y004619D01*
X007763Y004609D01*
Y004551D01*
X007708D01*
Y004338D01*
X007920D01*
Y004338D01*
X007928D01*
Y004338D01*
X008140D01*
Y004551D01*
X007928D01*
Y004551D01*
X007920D01*
Y004551D01*
X007865D01*
Y004609D01*
X007878Y004619D01*
X007893Y004638D01*
X007902Y004660D01*
X007905Y004683D01*
X007902Y004707D01*
X007893Y004729D01*
X007878Y004748D01*
X007859Y004762D01*
X007837Y004771D01*
X007814Y004774D01*
D02*
G37*
G36*
X005172Y004327D02*
X005100D01*
Y004256D01*
X005110Y004257D01*
X005131Y004265D01*
X005148Y004279D01*
X005162Y004297D01*
X005171Y004318D01*
X005172Y004327D01*
D02*
G37*
G36*
X005075D02*
X005003D01*
X005004Y004318D01*
X005013Y004297D01*
X005027Y004279D01*
X005044Y004265D01*
X005065Y004257D01*
X005075Y004256D01*
Y004327D01*
D02*
G37*
G36*
X007916Y004216D02*
X007827D01*
Y004127D01*
X007916D01*
Y004216D01*
D02*
G37*
G36*
X008136D02*
X008047D01*
Y004127D01*
X008136D01*
Y004216D01*
D02*
G37*
G36*
X008021D02*
X007932D01*
Y004127D01*
X008021D01*
Y004216D01*
D02*
G37*
G36*
X007801D02*
X007712D01*
Y004127D01*
X007801D01*
Y004216D01*
D02*
G37*
G36*
X008136Y004102D02*
X008047D01*
Y004013D01*
X008136D01*
Y004102D01*
D02*
G37*
G36*
X008021D02*
X007932D01*
Y004013D01*
X008021D01*
Y004102D01*
D02*
G37*
G36*
X007916D02*
X007827D01*
Y004013D01*
X007916D01*
Y004102D01*
D02*
G37*
G36*
X007801D02*
X007712D01*
Y004013D01*
X007801D01*
Y004102D01*
D02*
G37*
G36*
X009606Y004006D02*
X009394D01*
Y003794D01*
X009606D01*
Y004006D01*
D02*
G37*
%LPD*%
G36*
X007737Y004996D02*
X007754Y004985D01*
X007773Y004982D01*
X008235D01*
X008236Y004980D01*
X008244Y004969D01*
X008238Y004956D01*
X007655D01*
X007649Y004969D01*
X007657Y004980D01*
X007668Y005005D01*
X007671Y005033D01*
X007670Y005046D01*
X007682Y005052D01*
X007737Y004996D01*
D02*
G37*
%LPC*%
G36*
X002067Y006232D02*
X002040Y006228D01*
X002015Y006218D01*
X001994Y006201D01*
X001977Y006179D01*
X001967Y006154D01*
X001963Y006127D01*
X001967Y006100D01*
X001977Y006075D01*
X001994Y006053D01*
X002015Y006036D01*
X002040Y006026D01*
X002067Y006022D01*
X002095Y006026D01*
X002120Y006036D01*
X002141Y006053D01*
X002158Y006075D01*
X002168Y006100D01*
X002172Y006127D01*
X002168Y006154D01*
X002158Y006179D01*
X002141Y006201D01*
X002120Y006218D01*
X002095Y006228D01*
X002067Y006232D01*
D02*
G37*
G36*
X003728Y006181D02*
X003692Y006177D01*
X003658Y006167D01*
X003627Y006150D01*
X003600Y006128D01*
X003577Y006100D01*
X003560Y006069D01*
X003550Y006035D01*
X003547Y006000D01*
X003550Y005965D01*
X003560Y005931D01*
X003577Y005900D01*
X003600Y005872D01*
X003627Y005850D01*
X003658Y005833D01*
X003692Y005823D01*
X003728Y005819D01*
X003763Y005823D01*
X003797Y005833D01*
X003828Y005850D01*
X003855Y005872D01*
X003878Y005900D01*
X003895Y005931D01*
X003905Y005965D01*
X003908Y006000D01*
X003905Y006035D01*
X003895Y006069D01*
X003878Y006100D01*
X003855Y006128D01*
X003828Y006150D01*
X003797Y006167D01*
X003763Y006177D01*
X003728Y006181D01*
D02*
G37*
G36*
X000500Y006191D02*
X000463Y006187D01*
X000427Y006176D01*
X000394Y006159D01*
X000365Y006135D01*
X000341Y006106D01*
X000324Y006073D01*
X000313Y006037D01*
X000309Y006000D01*
X000313Y005963D01*
X000324Y005927D01*
X000341Y005894D01*
X000365Y005865D01*
X000394Y005841D01*
X000427Y005824D01*
X000463Y005813D01*
X000500Y005809D01*
X000537Y005813D01*
X000573Y005824D01*
X000606Y005841D01*
X000635Y005865D01*
X000659Y005894D01*
X000676Y005927D01*
X000687Y005963D01*
X000691Y006000D01*
X000687Y006037D01*
X000676Y006073D01*
X000659Y006106D01*
X000635Y006135D01*
X000606Y006159D01*
X000573Y006176D01*
X000537Y006187D01*
X000500Y006191D01*
D02*
G37*
G36*
X002171Y005977D02*
X001964D01*
Y005769D01*
X002171D01*
Y005977D01*
D02*
G37*
G36*
X002345Y005204D02*
X002256D01*
Y005115D01*
X002345D01*
Y005204D01*
D02*
G37*
G36*
Y005090D02*
X002256D01*
Y005001D01*
X002345D01*
Y005090D01*
D02*
G37*
G36*
X002461Y005209D02*
X002451Y005204D01*
X002370D01*
Y005103D01*
Y005001D01*
X002451D01*
X002461Y004996D01*
X002470Y004996D01*
X002884D01*
Y005209D01*
X002465Y005209D01*
X002461D01*
D02*
G37*
G36*
X002068Y005693D02*
X002044Y005690D01*
X002022Y005681D01*
X002003Y005667D01*
X001989Y005648D01*
X001980Y005626D01*
X001977Y005603D01*
X001980Y005579D01*
X001989Y005557D01*
X002003Y005538D01*
X002017Y005528D01*
Y005211D01*
X001961D01*
Y005071D01*
X001869Y004978D01*
X001858Y004962D01*
X001854Y004942D01*
Y004850D01*
X001852Y004838D01*
X001841Y004838D01*
X001692D01*
Y004826D01*
X001524D01*
Y004879D01*
X001505D01*
X001498Y004891D01*
X001500Y004894D01*
X001690D01*
X001710Y004898D01*
X001726Y004909D01*
X001773Y004956D01*
X001784Y004973D01*
X001788Y004992D01*
Y004999D01*
X001844D01*
Y005211D01*
X001631D01*
Y004999D01*
X001620Y004996D01*
X001536D01*
X001524Y004996D01*
X001524Y005009D01*
Y005209D01*
X001311D01*
Y005151D01*
X000673D01*
X000667Y005169D01*
X000650Y005200D01*
X000628Y005228D01*
X000600Y005250D01*
X000569Y005267D01*
X000535Y005277D01*
X000500Y005281D01*
X000465Y005277D01*
X000431Y005267D01*
X000400Y005250D01*
X000372Y005228D01*
X000350Y005200D01*
X000333Y005169D01*
X000323Y005135D01*
X000319Y005100D01*
X000323Y005065D01*
X000333Y005031D01*
X000350Y005000D01*
X000372Y004972D01*
X000400Y004950D01*
X000431Y004933D01*
X000449Y004927D01*
Y004831D01*
X000394D01*
Y004619D01*
X000606D01*
Y004831D01*
X000551D01*
Y004927D01*
X000569Y004933D01*
X000600Y004950D01*
X000628Y004972D01*
X000650Y005000D01*
X000667Y005031D01*
X000673Y005049D01*
X001311D01*
Y004996D01*
X001434D01*
X001438Y004984D01*
X001434Y004981D01*
X001384Y004931D01*
X001373Y004915D01*
X001369Y004895D01*
Y004879D01*
X001311D01*
Y004674D01*
X001222D01*
Y004598D01*
X001311D01*
X001400D01*
Y004666D01*
X001431D01*
Y004492D01*
X001473D01*
Y004443D01*
X001460Y004433D01*
X001446Y004414D01*
X001436Y004392D01*
X001433Y004368D01*
X001436Y004345D01*
X001446Y004323D01*
X001460Y004304D01*
X001479Y004290D01*
X001501Y004281D01*
X001524Y004278D01*
X001548Y004281D01*
X001570Y004290D01*
X001588Y004304D01*
X001603Y004323D01*
X001612Y004345D01*
X001615Y004368D01*
X001612Y004392D01*
X001603Y004414D01*
X001588Y004433D01*
X001575Y004443D01*
Y004492D01*
X001618D01*
Y004534D01*
X001692D01*
Y004522D01*
X001852D01*
Y004591D01*
X001865Y004595D01*
X001869Y004589D01*
X001909Y004549D01*
X001925Y004538D01*
X001945Y004534D01*
X001952D01*
Y004522D01*
X002112D01*
Y004647D01*
X002108D01*
Y004667D01*
X002033D01*
Y004693D01*
X002108D01*
Y004712D01*
X002112D01*
Y004721D01*
X002251D01*
Y004666D01*
X002884D01*
Y004721D01*
X002920D01*
X002930Y004708D01*
X002949Y004694D01*
X002971Y004685D01*
X002994Y004682D01*
X003018Y004685D01*
X003040Y004694D01*
X003058Y004708D01*
X003073Y004727D01*
X003082Y004749D01*
X003085Y004772D01*
X003082Y004796D01*
X003073Y004818D01*
X003058Y004837D01*
X003040Y004851D01*
X003018Y004860D01*
X002994Y004863D01*
X002971Y004860D01*
X002949Y004851D01*
X002930Y004837D01*
X002920Y004823D01*
X002884D01*
Y004879D01*
X002251D01*
Y004823D01*
X002112D01*
Y004838D01*
X001956D01*
Y004921D01*
X002033Y004999D01*
X002174D01*
Y005211D01*
X002119D01*
Y005528D01*
X002132Y005538D01*
X002146Y005557D01*
X002155Y005579D01*
X002158Y005603D01*
X002155Y005626D01*
X002146Y005648D01*
X002132Y005667D01*
X002113Y005681D01*
X002091Y005690D01*
X002068Y005693D01*
D02*
G37*
G36*
X001400Y004572D02*
X001324D01*
Y004496D01*
X001400D01*
Y004572D01*
D02*
G37*
G36*
X001298D02*
X001222D01*
Y004496D01*
X001298D01*
Y004572D01*
D02*
G37*
G36*
X000602Y004497D02*
X000513D01*
Y004408D01*
X000602D01*
Y004497D01*
D02*
G37*
G36*
X000487D02*
X000398D01*
Y004408D01*
X000487D01*
Y004497D01*
D02*
G37*
G36*
X000602Y004382D02*
X000513D01*
Y004293D01*
X000602D01*
Y004382D01*
D02*
G37*
G36*
X000487D02*
X000398D01*
Y004293D01*
X000487D01*
Y004382D01*
D02*
G37*
G36*
X006617Y003729D02*
X006541D01*
Y003653D01*
X006617D01*
Y003729D01*
D02*
G37*
G36*
X006516D02*
X006439D01*
Y003653D01*
X006516D01*
Y003729D01*
D02*
G37*
G36*
X006617Y003627D02*
X006541D01*
Y003551D01*
X006617D01*
Y003627D01*
D02*
G37*
G36*
X006516D02*
X006439D01*
Y003551D01*
X006516D01*
Y003627D01*
D02*
G37*
G36*
X006835Y003733D02*
X006648D01*
Y003547D01*
X006835D01*
Y003589D01*
X006871D01*
X006881Y003576D01*
X006900Y003561D01*
X006922Y003552D01*
X006945Y003549D01*
X006968Y003552D01*
X006990Y003561D01*
X007009Y003576D01*
X007024Y003595D01*
X007033Y003617D01*
X007036Y003640D01*
X007033Y003663D01*
X007024Y003685D01*
X007009Y003704D01*
X006990Y003719D01*
X006968Y003728D01*
X006945Y003731D01*
X006922Y003728D01*
X006900Y003719D01*
X006881Y003704D01*
X006871Y003691D01*
X006835D01*
Y003733D01*
D02*
G37*
G36*
X007200Y003743D02*
X007173Y003739D01*
X007148Y003729D01*
X007126Y003712D01*
X007109Y003691D01*
X007099Y003666D01*
X007095Y003638D01*
X007099Y003611D01*
X007109Y003586D01*
X007126Y003565D01*
X007148Y003548D01*
X007173Y003538D01*
X007200Y003534D01*
X007227Y003538D01*
X007252Y003548D01*
X007274Y003565D01*
X007291Y003586D01*
X007301Y003611D01*
X007305Y003638D01*
X007301Y003666D01*
X007291Y003691D01*
X007274Y003712D01*
X007252Y003729D01*
X007227Y003739D01*
X007200Y003743D01*
D02*
G37*
G36*
X000513Y003675D02*
Y003513D01*
X000675D01*
X000673Y003534D01*
X000663Y003567D01*
X000647Y003598D01*
X000625Y003625D01*
X000598Y003647D01*
X000567Y003663D01*
X000534Y003673D01*
X000513Y003675D01*
D02*
G37*
G36*
X000487D02*
X000466Y003673D01*
X000433Y003663D01*
X000402Y003647D01*
X000375Y003625D01*
X000353Y003598D01*
X000337Y003567D01*
X000327Y003534D01*
X000325Y003513D01*
X000487D01*
Y003675D01*
D02*
G37*
G36*
X000675Y003487D02*
X000513D01*
Y003325D01*
X000534Y003327D01*
X000567Y003337D01*
X000598Y003353D01*
X000625Y003375D01*
X000647Y003402D01*
X000663Y003433D01*
X000673Y003466D01*
X000675Y003487D01*
D02*
G37*
G36*
X000487D02*
X000325D01*
X000327Y003466D01*
X000337Y003433D01*
X000353Y003402D01*
X000375Y003375D01*
X000402Y003353D01*
X000433Y003337D01*
X000466Y003327D01*
X000487Y003325D01*
Y003487D01*
D02*
G37*
G36*
X007304Y003488D02*
X007096D01*
Y003281D01*
X007304D01*
Y003488D01*
D02*
G37*
G36*
X005500Y003723D02*
X005465Y003720D01*
X005431Y003710D01*
X005400Y003693D01*
X005372Y003670D01*
X005350Y003643D01*
X005333Y003612D01*
X005323Y003578D01*
X005319Y003542D01*
X005323Y003507D01*
X005333Y003473D01*
X005350Y003442D01*
X005372Y003415D01*
X005400Y003392D01*
X005431Y003375D01*
X005465Y003365D01*
X005500Y003362D01*
X005535Y003365D01*
X005569Y003375D01*
X005600Y003392D01*
X005628Y003415D01*
X005650Y003442D01*
X005667Y003473D01*
X005673Y003492D01*
X006049D01*
X006646Y002895D01*
Y002672D01*
X006645Y002672D01*
X006623Y002655D01*
X006606Y002634D01*
X006596Y002608D01*
X006592Y002581D01*
X006596Y002554D01*
X006606Y002529D01*
X006623Y002507D01*
X006645Y002491D01*
X006670Y002480D01*
X006697Y002477D01*
X006724Y002480D01*
X006749Y002491D01*
X006771Y002507D01*
X006788Y002529D01*
X006788Y002530D01*
X006894D01*
Y002475D01*
X007149D01*
Y002237D01*
X007153Y002218D01*
X007164Y002201D01*
X007230Y002135D01*
X007246Y002124D01*
X007266Y002121D01*
X007290D01*
Y002057D01*
Y001992D01*
Y001927D01*
Y001861D01*
Y001767D01*
X007224D01*
X007204Y001764D01*
X007188Y001753D01*
X007134Y001699D01*
X007123Y001682D01*
X007119Y001662D01*
Y001253D01*
X007076D01*
Y001250D01*
X007052D01*
Y001804D01*
X007048Y001824D01*
X007037Y001840D01*
X006865Y002013D01*
X006848Y002024D01*
X006828Y002027D01*
X006710D01*
Y002122D01*
Y002187D01*
Y002287D01*
X006595D01*
X006590Y002287D01*
X006412D01*
X006131Y002569D01*
Y002777D01*
X006127Y002797D01*
X006116Y002814D01*
X005960Y002970D01*
X005944Y002981D01*
X005924Y002984D01*
X005852D01*
X005842Y002998D01*
X005823Y003012D01*
X005801Y003021D01*
X005778Y003024D01*
X005754Y003021D01*
X005732Y003012D01*
X005713Y002998D01*
X005699Y002979D01*
X005690Y002957D01*
X005687Y002933D01*
X005690Y002910D01*
X005699Y002888D01*
X005713Y002869D01*
X005732Y002855D01*
X005754Y002846D01*
X005778Y002843D01*
X005801Y002846D01*
X005823Y002855D01*
X005842Y002869D01*
X005852Y002883D01*
X005903D01*
X006029Y002756D01*
Y002548D01*
X006033Y002528D01*
X006044Y002511D01*
X006317Y002239D01*
X006312Y002225D01*
X006305Y002224D01*
X005866Y002663D01*
X005868Y002680D01*
X005865Y002703D01*
X005856Y002725D01*
X005842Y002744D01*
X005823Y002758D01*
X005801Y002767D01*
X005778Y002770D01*
X005754Y002767D01*
X005732Y002758D01*
X005713Y002744D01*
X005699Y002725D01*
X005690Y002703D01*
X005687Y002680D01*
X005690Y002656D01*
X005699Y002634D01*
X005713Y002615D01*
X005732Y002601D01*
X005754Y002592D01*
X005778Y002589D01*
X005794Y002591D01*
X006216Y002169D01*
X006211Y002157D01*
X006118D01*
X005866Y002409D01*
X005868Y002425D01*
X005865Y002449D01*
X005856Y002471D01*
X005842Y002490D01*
X005823Y002504D01*
X005801Y002513D01*
X005778Y002516D01*
X005754Y002513D01*
X005732Y002504D01*
X005713Y002490D01*
X005699Y002471D01*
X005690Y002449D01*
X005687Y002425D01*
X005690Y002402D01*
X005699Y002380D01*
X005713Y002361D01*
X005732Y002347D01*
X005754Y002338D01*
X005778Y002335D01*
X005794Y002337D01*
X006027Y002104D01*
X006022Y002092D01*
X005929D01*
X005866Y002155D01*
X005868Y002172D01*
X005865Y002195D01*
X005856Y002217D01*
X005842Y002236D01*
X005823Y002250D01*
X005801Y002259D01*
X005778Y002262D01*
X005754Y002259D01*
X005732Y002250D01*
X005713Y002236D01*
X005699Y002217D01*
X005690Y002195D01*
X005687Y002172D01*
X005690Y002148D01*
X005699Y002126D01*
X005713Y002107D01*
X005732Y002093D01*
X005754Y002084D01*
X005778Y002081D01*
X005794Y002083D01*
X005871Y002005D01*
X005888Y001994D01*
X005907Y001991D01*
X006470D01*
Y001927D01*
X006475D01*
Y001924D01*
X006705D01*
Y001926D01*
X006807D01*
X006950Y001783D01*
Y001250D01*
X006881D01*
Y001795D01*
X006877Y001815D01*
X006866Y001831D01*
X006815Y001883D01*
X006798Y001894D01*
X006779Y001897D01*
X006705D01*
Y001899D01*
X006475D01*
Y001897D01*
X006470D01*
Y001797D01*
X006475D01*
Y001794D01*
X006705D01*
Y001796D01*
X006757D01*
X006779Y001774D01*
Y001250D01*
X006735D01*
Y001209D01*
X006688D01*
X006678Y001222D01*
X006659Y001237D01*
X006637Y001246D01*
X006613Y001249D01*
X006590Y001246D01*
X006568Y001237D01*
X006549Y001222D01*
X006535Y001204D01*
X006526Y001182D01*
X006523Y001158D01*
X006526Y001135D01*
X006535Y001113D01*
X006549Y001094D01*
X006568Y001080D01*
X006590Y001070D01*
X006613Y001067D01*
X006637Y001070D01*
X006659Y001080D01*
X006678Y001094D01*
X006688Y001107D01*
X006735D01*
Y001063D01*
X007094D01*
Y001066D01*
X007264D01*
Y001108D01*
X007312D01*
X007322Y001095D01*
X007341Y001081D01*
X007363Y001071D01*
X007387Y001068D01*
X007410Y001071D01*
X007432Y001081D01*
X007451Y001095D01*
X007465Y001114D01*
X007474Y001136D01*
X007477Y001159D01*
X007474Y001183D01*
X007465Y001205D01*
X007451Y001223D01*
X007432Y001238D01*
X007410Y001247D01*
X007387Y001250D01*
X007363Y001247D01*
X007341Y001238D01*
X007322Y001223D01*
X007312Y001210D01*
X007264D01*
Y001253D01*
X007221D01*
Y001641D01*
X007245Y001666D01*
X007295D01*
Y001664D01*
X007525D01*
Y001667D01*
X007530D01*
Y001731D01*
X008149D01*
X008158Y001718D01*
X008177Y001704D01*
X008199Y001695D01*
X008222Y001692D01*
X008246Y001695D01*
X008268Y001704D01*
X008287Y001718D01*
X008301Y001737D01*
X008310Y001759D01*
X008313Y001783D01*
X008310Y001806D01*
X008301Y001828D01*
X008287Y001847D01*
X008268Y001861D01*
X008246Y001870D01*
X008222Y001873D01*
X008199Y001870D01*
X008177Y001861D01*
X008158Y001847D01*
X008147Y001832D01*
X008107D01*
X008102Y001844D01*
X008206Y001948D01*
X008222Y001946D01*
X008246Y001949D01*
X008268Y001958D01*
X008287Y001972D01*
X008301Y001991D01*
X008310Y002013D01*
X008313Y002036D01*
X008310Y002060D01*
X008301Y002082D01*
X008287Y002101D01*
X008268Y002115D01*
X008246Y002124D01*
X008222Y002127D01*
X008199Y002124D01*
X008177Y002115D01*
X008158Y002101D01*
X008144Y002082D01*
X008135Y002060D01*
X008132Y002036D01*
X008134Y002020D01*
X008011Y001897D01*
X007918D01*
X007913Y001909D01*
X008206Y002202D01*
X008222Y002200D01*
X008246Y002203D01*
X008268Y002212D01*
X008287Y002226D01*
X008301Y002245D01*
X008310Y002267D01*
X008313Y002291D01*
X008310Y002314D01*
X008301Y002336D01*
X008287Y002355D01*
X008268Y002369D01*
X008246Y002378D01*
X008222Y002381D01*
X008199Y002378D01*
X008177Y002369D01*
X008158Y002355D01*
X008144Y002336D01*
X008135Y002314D01*
X008132Y002291D01*
X008134Y002274D01*
X007987Y002127D01*
X007976Y002134D01*
X007978Y002148D01*
Y002228D01*
X008206Y002456D01*
X008222Y002454D01*
X008246Y002457D01*
X008268Y002466D01*
X008287Y002480D01*
X008301Y002499D01*
X008310Y002521D01*
X008313Y002544D01*
X008310Y002568D01*
X008301Y002590D01*
X008287Y002609D01*
X008268Y002623D01*
X008246Y002632D01*
X008222Y002635D01*
X008199Y002632D01*
X008177Y002623D01*
X008158Y002609D01*
X008144Y002590D01*
X008135Y002568D01*
X008132Y002544D01*
X008134Y002528D01*
X007920Y002314D01*
X007908Y002319D01*
Y002575D01*
X008081Y002748D01*
X008148D01*
X008158Y002734D01*
X008177Y002720D01*
X008199Y002711D01*
X008222Y002708D01*
X008246Y002711D01*
X008268Y002720D01*
X008287Y002734D01*
X008301Y002753D01*
X008310Y002775D01*
X008313Y002799D01*
X008310Y002822D01*
X008301Y002844D01*
X008287Y002863D01*
X008268Y002877D01*
X008246Y002886D01*
X008222Y002889D01*
X008199Y002886D01*
X008177Y002877D01*
X008158Y002863D01*
X008148Y002849D01*
X008060D01*
X008040Y002846D01*
X008024Y002835D01*
X007840Y002651D01*
X007828Y002656D01*
Y002836D01*
X007994Y003002D01*
X008148D01*
X008158Y002988D01*
X008177Y002974D01*
X008199Y002965D01*
X008222Y002962D01*
X008246Y002965D01*
X008268Y002974D01*
X008287Y002988D01*
X008301Y003007D01*
X008310Y003029D01*
X008313Y003052D01*
X008310Y003076D01*
X008301Y003098D01*
X008287Y003117D01*
X008268Y003131D01*
X008246Y003140D01*
X008222Y003143D01*
X008199Y003140D01*
X008177Y003131D01*
X008158Y003117D01*
X008148Y003103D01*
X007973D01*
X007953Y003100D01*
X007937Y003089D01*
X007741Y002893D01*
X007741Y002893D01*
X007728Y002897D01*
Y002976D01*
X008008Y003256D01*
X008148D01*
X008158Y003242D01*
X008177Y003228D01*
X008199Y003219D01*
X008222Y003216D01*
X008246Y003219D01*
X008268Y003228D01*
X008287Y003242D01*
X008301Y003261D01*
X008310Y003283D01*
X008313Y003306D01*
X008310Y003330D01*
X008301Y003352D01*
X008287Y003371D01*
X008268Y003385D01*
X008246Y003394D01*
X008222Y003397D01*
X008199Y003394D01*
X008177Y003385D01*
X008158Y003371D01*
X008148Y003357D01*
X007987D01*
X007968Y003354D01*
X007951Y003343D01*
X007641Y003033D01*
X007630Y003016D01*
X007627Y002997D01*
Y002349D01*
X007565Y002287D01*
X007410D01*
X007405Y002287D01*
X007290D01*
Y002238D01*
X007277Y002232D01*
X007251Y002259D01*
Y002475D01*
X007306D01*
Y002688D01*
X006894D01*
Y002632D01*
X006788D01*
X006788Y002634D01*
X006771Y002655D01*
X006749Y002672D01*
X006748Y002672D01*
Y002916D01*
X006744Y002935D01*
X006733Y002952D01*
X006106Y003579D01*
X006090Y003590D01*
X006070Y003593D01*
X005673D01*
X005667Y003612D01*
X005650Y003643D01*
X005628Y003670D01*
X005600Y003693D01*
X005569Y003710D01*
X005535Y003720D01*
X005500Y003723D01*
D02*
G37*
G36*
X008606Y003411D02*
X008394D01*
Y003199D01*
X008606D01*
Y003411D01*
D02*
G37*
G36*
X009500Y003245D02*
X009472Y003241D01*
X009447Y003231D01*
X009424Y003214D01*
X009407Y003191D01*
X009397Y003166D01*
X009393Y003138D01*
X009397Y003110D01*
X009407Y003085D01*
X009424Y003062D01*
X009447Y003045D01*
X009472Y003035D01*
X009500Y003031D01*
X009528Y003035D01*
X009553Y003045D01*
X009576Y003062D01*
X009593Y003085D01*
X009603Y003110D01*
X009607Y003138D01*
X009603Y003166D01*
X009593Y003191D01*
X009576Y003214D01*
X009553Y003231D01*
X009528Y003241D01*
X009500Y003245D01*
D02*
G37*
G36*
X008500Y003158D02*
X008472Y003154D01*
X008447Y003144D01*
X008424Y003127D01*
X008407Y003104D01*
X008397Y003079D01*
X008393Y003051D01*
X008397Y003023D01*
X008407Y002998D01*
X008424Y002975D01*
X008447Y002958D01*
X008472Y002948D01*
X008500Y002944D01*
X008528Y002948D01*
X008553Y002958D01*
X008576Y002975D01*
X008593Y002998D01*
X008603Y003023D01*
X008607Y003051D01*
X008603Y003079D01*
X008593Y003104D01*
X008576Y003127D01*
X008553Y003144D01*
X008528Y003154D01*
X008500Y003158D01*
D02*
G37*
G36*
X005606Y003041D02*
X005394D01*
Y002829D01*
X005606D01*
Y003041D01*
D02*
G37*
G36*
X007200Y003191D02*
X007177Y003188D01*
X007155Y003179D01*
X007136Y003164D01*
X007121Y003145D01*
X007112Y003123D01*
X007109Y003100D01*
X007112Y003077D01*
X007121Y003055D01*
X007136Y003036D01*
X007143Y003031D01*
X007138Y003018D01*
X006894D01*
Y002805D01*
X007306D01*
Y003018D01*
X007262D01*
X007257Y003031D01*
X007264Y003036D01*
X007279Y003055D01*
X007288Y003077D01*
X007291Y003100D01*
X007288Y003123D01*
X007279Y003145D01*
X007264Y003164D01*
X007245Y003179D01*
X007223Y003188D01*
X007200Y003191D01*
D02*
G37*
G36*
X008500Y002904D02*
X008472Y002900D01*
X008447Y002890D01*
X008424Y002873D01*
X008407Y002850D01*
X008397Y002825D01*
X008393Y002797D01*
X008397Y002769D01*
X008407Y002744D01*
X008424Y002721D01*
X008447Y002704D01*
X008472Y002694D01*
X008500Y002690D01*
X008528Y002694D01*
X008553Y002704D01*
X008576Y002721D01*
X008593Y002744D01*
X008603Y002769D01*
X008607Y002797D01*
X008603Y002825D01*
X008593Y002850D01*
X008576Y002873D01*
X008553Y002890D01*
X008528Y002900D01*
X008500Y002904D01*
D02*
G37*
G36*
X005500Y002788D02*
X005472Y002784D01*
X005447Y002774D01*
X005424Y002757D01*
X005407Y002734D01*
X005397Y002709D01*
X005393Y002681D01*
X005397Y002653D01*
X005407Y002628D01*
X005424Y002605D01*
X005447Y002588D01*
X005472Y002578D01*
X005500Y002574D01*
X005528Y002578D01*
X005553Y002588D01*
X005576Y002605D01*
X005593Y002628D01*
X005603Y002653D01*
X005607Y002681D01*
X005603Y002709D01*
X005593Y002734D01*
X005576Y002757D01*
X005553Y002774D01*
X005528Y002784D01*
X005500Y002788D01*
D02*
G37*
G36*
X003741Y002737D02*
X003717Y002734D01*
X003695Y002725D01*
X003677Y002711D01*
X003662Y002692D01*
X003653Y002670D01*
X003650Y002647D01*
X003653Y002623D01*
X003662Y002601D01*
X003677Y002582D01*
X003690Y002572D01*
Y002526D01*
X003650D01*
Y002481D01*
X003585D01*
Y002492D01*
X003425D01*
Y002443D01*
X003412Y002437D01*
X003384Y002466D01*
X003367Y002477D01*
X003347Y002481D01*
X003325D01*
Y002492D01*
X003165D01*
Y002481D01*
X002038D01*
Y002536D01*
X001851D01*
Y002404D01*
X001850Y002399D01*
Y002014D01*
X001616Y001781D01*
X000682D01*
X000663Y001777D01*
X000646Y001766D01*
X000444Y001563D01*
X000433Y001547D01*
X000429Y001527D01*
Y001361D01*
X000374D01*
Y001149D01*
X000586D01*
Y001361D01*
X000531D01*
Y001506D01*
X000704Y001679D01*
X001638D01*
X001657Y001683D01*
X001674Y001694D01*
X001937Y001957D01*
X001948Y001974D01*
X001952Y001993D01*
Y002120D01*
X001954Y002131D01*
X001964Y002131D01*
X002166D01*
Y002187D01*
X002219D01*
Y002131D01*
X002431D01*
Y002344D01*
X002219D01*
Y002288D01*
X002166D01*
Y002344D01*
X002048D01*
X002038Y002349D01*
X002038Y002356D01*
Y002379D01*
X003165D01*
Y002367D01*
X003170D01*
Y002348D01*
X003245D01*
Y002322D01*
X003170D01*
Y002302D01*
X003165D01*
Y002291D01*
X002761D01*
Y002344D01*
X002549D01*
Y002131D01*
X002549D01*
X002561Y002130D01*
Y001943D01*
X002749D01*
Y002130D01*
X002761Y002131D01*
X002761D01*
Y002189D01*
X003165D01*
Y002177D01*
X003325D01*
Y002244D01*
X003338Y002248D01*
X003344Y002239D01*
X003379Y002204D01*
X003395Y002193D01*
X003415Y002189D01*
X003425D01*
Y002177D01*
X003585D01*
Y002302D01*
X003431D01*
Y002367D01*
X003585D01*
Y002379D01*
X003650D01*
Y002339D01*
X003837D01*
Y002526D01*
X003792D01*
Y002572D01*
X003805Y002582D01*
X003819Y002601D01*
X003829Y002623D01*
X003832Y002647D01*
X003829Y002670D01*
X003819Y002692D01*
X003805Y002711D01*
X003786Y002725D01*
X003764Y002734D01*
X003741Y002737D01*
D02*
G37*
G36*
X006547Y002685D02*
X006339D01*
Y002478D01*
X006547D01*
Y002685D01*
D02*
G37*
G36*
X004046Y002521D02*
X003969D01*
Y002445D01*
X004046D01*
Y002521D01*
D02*
G37*
G36*
X003944D02*
X003868D01*
Y002445D01*
X003944D01*
Y002521D01*
D02*
G37*
G36*
X008500Y002650D02*
X008472Y002646D01*
X008447Y002636D01*
X008424Y002619D01*
X008407Y002596D01*
X008397Y002571D01*
X008393Y002543D01*
X008397Y002515D01*
X008407Y002490D01*
X008424Y002467D01*
X008447Y002450D01*
X008472Y002440D01*
X008500Y002436D01*
X008528Y002440D01*
X008553Y002450D01*
X008576Y002467D01*
X008593Y002490D01*
X008603Y002515D01*
X008607Y002543D01*
X008603Y002571D01*
X008593Y002596D01*
X008576Y002619D01*
X008553Y002636D01*
X008528Y002646D01*
X008500Y002650D01*
D02*
G37*
G36*
X004046Y002420D02*
X003969D01*
Y002344D01*
X004046D01*
Y002420D01*
D02*
G37*
G36*
X003944D02*
X003868D01*
Y002344D01*
X003944D01*
Y002420D01*
D02*
G37*
G36*
X005500Y002534D02*
X005472Y002530D01*
X005447Y002520D01*
X005424Y002503D01*
X005407Y002480D01*
X005397Y002455D01*
X005393Y002427D01*
X005397Y002399D01*
X005407Y002374D01*
X005424Y002351D01*
X005447Y002334D01*
X005472Y002324D01*
X005500Y002320D01*
X005528Y002324D01*
X005553Y002334D01*
X005576Y002351D01*
X005593Y002374D01*
X005603Y002399D01*
X005607Y002427D01*
X005603Y002455D01*
X005593Y002480D01*
X005576Y002503D01*
X005553Y002520D01*
X005528Y002530D01*
X005500Y002534D01*
D02*
G37*
G36*
X001824Y002536D02*
X001637D01*
Y002349D01*
X001627Y002344D01*
X001624D01*
Y002288D01*
X001486D01*
Y002344D01*
X001274D01*
Y002131D01*
X001486D01*
Y002187D01*
X001624D01*
Y002131D01*
X001836D01*
Y002344D01*
X001835D01*
X001824Y002349D01*
Y002536D01*
D02*
G37*
G36*
X008500Y002396D02*
X008472Y002392D01*
X008447Y002382D01*
X008424Y002365D01*
X008407Y002342D01*
X008397Y002317D01*
X008393Y002289D01*
X008397Y002261D01*
X008407Y002236D01*
X008424Y002213D01*
X008447Y002196D01*
X008472Y002186D01*
X008500Y002182D01*
X008528Y002186D01*
X008553Y002196D01*
X008576Y002213D01*
X008593Y002236D01*
X008603Y002261D01*
X008607Y002289D01*
X008603Y002317D01*
X008593Y002342D01*
X008576Y002365D01*
X008553Y002382D01*
X008528Y002392D01*
X008500Y002396D01*
D02*
G37*
G36*
X000500Y002901D02*
X000465Y002897D01*
X000431Y002887D01*
X000400Y002870D01*
X000372Y002848D01*
X000350Y002820D01*
X000333Y002789D01*
X000323Y002755D01*
X000319Y002720D01*
X000323Y002685D01*
X000333Y002651D01*
X000350Y002620D01*
X000372Y002592D01*
X000400Y002570D01*
X000431Y002553D01*
X000449Y002547D01*
Y002344D01*
X000394D01*
Y002131D01*
X000606D01*
Y002344D01*
X000551D01*
Y002547D01*
X000569Y002553D01*
X000600Y002570D01*
X000628Y002592D01*
X000650Y002620D01*
X000667Y002651D01*
X000677Y002685D01*
X000681Y002720D01*
X000677Y002755D01*
X000667Y002789D01*
X000650Y002820D01*
X000628Y002848D01*
X000600Y002870D01*
X000569Y002887D01*
X000535Y002897D01*
X000500Y002901D01*
D02*
G37*
G36*
X000936Y002344D02*
Y002344D01*
X000931Y002344D01*
X000724D01*
Y002131D01*
X000936D01*
Y002131D01*
X000944D01*
Y002131D01*
X001156D01*
Y002344D01*
X000949D01*
X000944Y002344D01*
Y002344D01*
X000936D01*
D02*
G37*
G36*
X005500Y002280D02*
X005472Y002276D01*
X005447Y002266D01*
X005424Y002249D01*
X005407Y002226D01*
X005397Y002201D01*
X005393Y002173D01*
X005397Y002145D01*
X005407Y002120D01*
X005424Y002097D01*
X005447Y002080D01*
X005472Y002070D01*
X005500Y002066D01*
X005528Y002070D01*
X005553Y002080D01*
X005576Y002097D01*
X005593Y002120D01*
X005603Y002145D01*
X005607Y002173D01*
X005603Y002201D01*
X005593Y002226D01*
X005576Y002249D01*
X005553Y002266D01*
X005528Y002276D01*
X005500Y002280D01*
D02*
G37*
G36*
X008500Y002142D02*
X008472Y002138D01*
X008447Y002128D01*
X008424Y002111D01*
X008407Y002088D01*
X008397Y002063D01*
X008393Y002035D01*
X008397Y002007D01*
X008407Y001982D01*
X008424Y001959D01*
X008447Y001942D01*
X008472Y001932D01*
X008500Y001928D01*
X008528Y001932D01*
X008553Y001942D01*
X008576Y001959D01*
X008593Y001982D01*
X008603Y002007D01*
X008607Y002035D01*
X008603Y002063D01*
X008593Y002088D01*
X008576Y002111D01*
X008553Y002128D01*
X008528Y002138D01*
X008500Y002142D01*
D02*
G37*
G36*
X002744Y001912D02*
X002668D01*
Y001836D01*
X002744D01*
Y001912D01*
D02*
G37*
G36*
X002642D02*
X002566D01*
Y001836D01*
X002642D01*
Y001912D01*
D02*
G37*
G36*
X002744Y001811D02*
X002668D01*
Y001734D01*
X002744D01*
Y001811D01*
D02*
G37*
G36*
X002642D02*
X002566D01*
Y001734D01*
X002642D01*
Y001811D01*
D02*
G37*
G36*
X009413Y001875D02*
Y001713D01*
X009575D01*
X009573Y001734D01*
X009563Y001767D01*
X009547Y001798D01*
X009525Y001825D01*
X009498Y001847D01*
X009467Y001863D01*
X009434Y001873D01*
X009413Y001875D01*
D02*
G37*
G36*
X009387D02*
X009366Y001873D01*
X009333Y001863D01*
X009302Y001847D01*
X009275Y001825D01*
X009253Y001798D01*
X009237Y001767D01*
X009227Y001734D01*
X009225Y001713D01*
X009387D01*
Y001875D01*
D02*
G37*
G36*
X008500Y001888D02*
X008472Y001884D01*
X008447Y001874D01*
X008424Y001857D01*
X008407Y001834D01*
X008397Y001809D01*
X008393Y001781D01*
X008397Y001753D01*
X008407Y001728D01*
X008424Y001705D01*
X008447Y001688D01*
X008472Y001678D01*
X008500Y001674D01*
X008528Y001678D01*
X008553Y001688D01*
X008576Y001705D01*
X008593Y001728D01*
X008603Y001753D01*
X008607Y001781D01*
X008603Y001809D01*
X008593Y001834D01*
X008576Y001857D01*
X008553Y001874D01*
X008528Y001884D01*
X008500Y001888D01*
D02*
G37*
G36*
X005606Y001817D02*
X005394D01*
Y001606D01*
X005606D01*
Y001817D01*
D02*
G37*
G36*
X009575Y001687D02*
X009413D01*
Y001525D01*
X009434Y001527D01*
X009467Y001537D01*
X009498Y001553D01*
X009525Y001575D01*
X009547Y001602D01*
X009563Y001633D01*
X009573Y001666D01*
X009575Y001687D01*
D02*
G37*
G36*
X009387D02*
X009225D01*
X009227Y001666D01*
X009237Y001633D01*
X009253Y001602D01*
X009275Y001575D01*
X009302Y001553D01*
X009333Y001537D01*
X009366Y001527D01*
X009387Y001525D01*
Y001687D01*
D02*
G37*
G36*
X003743Y001752D02*
X003720Y001749D01*
X003698Y001740D01*
X003679Y001726D01*
X003665Y001707D01*
X003656Y001685D01*
X003653Y001662D01*
X003656Y001638D01*
X003665Y001616D01*
X003679Y001597D01*
X003692Y001587D01*
Y001544D01*
X003655D01*
Y001496D01*
X003590D01*
Y001507D01*
X003430D01*
Y001458D01*
X003417Y001452D01*
X003389Y001481D01*
X003372Y001492D01*
X003353Y001496D01*
X003330D01*
Y001507D01*
X003170D01*
Y001496D01*
X002035D01*
Y001559D01*
X001848D01*
Y001372D01*
X001946D01*
X001951Y001361D01*
X001951Y001359D01*
Y001149D01*
X002164D01*
Y001204D01*
X002216D01*
Y001149D01*
X002429D01*
Y001361D01*
X002216D01*
Y001306D01*
X002164D01*
Y001361D01*
X002041D01*
X002035Y001372D01*
X002035Y001374D01*
Y001394D01*
X003170D01*
Y001382D01*
X003175D01*
Y001363D01*
X003250D01*
Y001337D01*
X003175D01*
Y001318D01*
X003170D01*
Y001306D01*
X002759D01*
Y001361D01*
X002546D01*
Y001149D01*
X002549D01*
X002559Y001143D01*
Y000956D01*
X002746D01*
Y001143D01*
X002756Y001149D01*
X002759D01*
Y001204D01*
X003170D01*
Y001193D01*
X003330D01*
Y001259D01*
X003343Y001263D01*
X003349Y001254D01*
X003384Y001219D01*
X003400Y001208D01*
X003420Y001204D01*
X003430D01*
Y001193D01*
X003590D01*
Y001204D01*
X003681D01*
X003749Y001136D01*
Y000673D01*
X003731Y000667D01*
X003700Y000650D01*
X003672Y000628D01*
X003650Y000600D01*
X003633Y000569D01*
X003623Y000535D01*
X003619Y000500D01*
X003623Y000465D01*
X003633Y000431D01*
X003650Y000400D01*
X003672Y000372D01*
X003700Y000350D01*
X003731Y000333D01*
X003765Y000323D01*
X003800Y000319D01*
X003835Y000323D01*
X003869Y000333D01*
X003900Y000350D01*
X003928Y000372D01*
X003950Y000400D01*
X003967Y000431D01*
X003977Y000465D01*
X003981Y000500D01*
X003977Y000535D01*
X003967Y000569D01*
X003950Y000600D01*
X003928Y000628D01*
X003900Y000650D01*
X003869Y000667D01*
X003851Y000673D01*
Y001157D01*
X003847Y001177D01*
X003836Y001194D01*
X003739Y001291D01*
X003722Y001302D01*
X003703Y001306D01*
X003590D01*
Y001318D01*
X003436D01*
Y001382D01*
X003590D01*
Y001394D01*
X003655D01*
Y001356D01*
X003842D01*
Y001544D01*
X003794D01*
Y001587D01*
X003808Y001597D01*
X003822Y001616D01*
X003831Y001638D01*
X003834Y001662D01*
X003831Y001685D01*
X003822Y001707D01*
X003808Y001726D01*
X003789Y001740D01*
X003767Y001749D01*
X003743Y001752D01*
D02*
G37*
G36*
X004051Y001539D02*
X003974D01*
Y001463D01*
X004051D01*
Y001539D01*
D02*
G37*
G36*
X003949D02*
X003873D01*
Y001463D01*
X003949D01*
Y001539D01*
D02*
G37*
G36*
X004051Y001437D02*
X003974D01*
Y001361D01*
X004051D01*
Y001437D01*
D02*
G37*
G36*
X003949D02*
X003873D01*
Y001361D01*
X003949D01*
Y001437D01*
D02*
G37*
G36*
X005500Y001564D02*
X005472Y001561D01*
X005447Y001550D01*
X005424Y001533D01*
X005407Y001511D01*
X005397Y001485D01*
X005393Y001457D01*
X005397Y001430D01*
X005407Y001404D01*
X005424Y001382D01*
X005447Y001365D01*
X005472Y001354D01*
X005500Y001351D01*
X005528Y001354D01*
X005553Y001365D01*
X005576Y001382D01*
X005593Y001404D01*
X005603Y001430D01*
X005607Y001457D01*
X005603Y001485D01*
X005593Y001511D01*
X005576Y001533D01*
X005553Y001550D01*
X005528Y001561D01*
X005500Y001564D01*
D02*
G37*
G36*
X001822Y001559D02*
X001635D01*
Y001372D01*
X001629Y001361D01*
X001621D01*
Y001306D01*
X001469D01*
Y001361D01*
X001256D01*
Y001149D01*
X001469D01*
Y001204D01*
X001621D01*
Y001149D01*
X001834D01*
Y001361D01*
X001828D01*
X001822Y001372D01*
Y001559D01*
D02*
G37*
G36*
X007525Y001639D02*
X007295D01*
Y001636D01*
X007290D01*
Y001536D01*
Y001472D01*
Y001406D01*
Y001341D01*
X007405D01*
X007410Y001341D01*
X007562D01*
X007750Y001153D01*
Y000927D01*
X007754Y000908D01*
X007765Y000891D01*
X008134Y000523D01*
X008132Y000506D01*
X008135Y000483D01*
X008144Y000461D01*
X008158Y000442D01*
X008177Y000427D01*
X008199Y000418D01*
X008222Y000415D01*
X008246Y000418D01*
X008268Y000427D01*
X008287Y000442D01*
X008301Y000461D01*
X008310Y000483D01*
X008313Y000506D01*
X008310Y000529D01*
X008301Y000551D01*
X008287Y000570D01*
X008268Y000585D01*
X008246Y000594D01*
X008222Y000597D01*
X008206Y000595D01*
X007852Y000948D01*
Y001041D01*
X007861Y001045D01*
X007865Y001045D01*
X008134Y000777D01*
X008132Y000760D01*
X008135Y000737D01*
X008144Y000715D01*
X008158Y000696D01*
X008177Y000681D01*
X008199Y000672D01*
X008222Y000669D01*
X008246Y000672D01*
X008268Y000681D01*
X008287Y000696D01*
X008301Y000715D01*
X008310Y000737D01*
X008313Y000760D01*
X008310Y000783D01*
X008301Y000805D01*
X008287Y000824D01*
X008268Y000839D01*
X008246Y000848D01*
X008222Y000851D01*
X008206Y000849D01*
X007951Y001104D01*
Y001197D01*
X007964Y001201D01*
X007964Y001200D01*
X008134Y001031D01*
X008132Y001014D01*
X008135Y000991D01*
X008144Y000969D01*
X008158Y000950D01*
X008177Y000935D01*
X008199Y000926D01*
X008222Y000923D01*
X008246Y000926D01*
X008268Y000935D01*
X008287Y000950D01*
X008301Y000969D01*
X008310Y000991D01*
X008313Y001014D01*
X008310Y001037D01*
X008301Y001059D01*
X008287Y001078D01*
X008268Y001093D01*
X008246Y001102D01*
X008222Y001105D01*
X008206Y001103D01*
X008051Y001258D01*
Y001344D01*
X008050Y001351D01*
X008061Y001357D01*
X008134Y001285D01*
X008132Y001268D01*
X008135Y001245D01*
X008144Y001223D01*
X008158Y001204D01*
X008177Y001189D01*
X008199Y001180D01*
X008222Y001177D01*
X008246Y001180D01*
X008268Y001189D01*
X008287Y001204D01*
X008301Y001223D01*
X008310Y001245D01*
X008313Y001268D01*
X008310Y001291D01*
X008301Y001313D01*
X008287Y001332D01*
X008268Y001347D01*
X008246Y001356D01*
X008222Y001359D01*
X008206Y001357D01*
X007940Y001623D01*
X007924Y001634D01*
X007904Y001637D01*
X007525D01*
Y001639D01*
D02*
G37*
G36*
X008606Y001373D02*
X008394D01*
Y001161D01*
X008606D01*
Y001373D01*
D02*
G37*
G36*
X000916Y001361D02*
Y001361D01*
X000914Y001361D01*
X000704D01*
Y001149D01*
X000916D01*
Y001149D01*
X000926D01*
Y001149D01*
X001139D01*
Y001361D01*
X000929D01*
X000926Y001361D01*
Y001361D01*
X000916D01*
D02*
G37*
G36*
X005500Y001310D02*
X005472Y001307D01*
X005447Y001296D01*
X005424Y001279D01*
X005407Y001257D01*
X005397Y001231D01*
X005393Y001203D01*
X005397Y001176D01*
X005407Y001150D01*
X005424Y001128D01*
X005447Y001111D01*
X005472Y001100D01*
X005500Y001097D01*
X005528Y001100D01*
X005553Y001111D01*
X005576Y001128D01*
X005593Y001150D01*
X005603Y001176D01*
X005607Y001203D01*
X005603Y001231D01*
X005593Y001257D01*
X005576Y001279D01*
X005553Y001296D01*
X005528Y001307D01*
X005500Y001310D01*
D02*
G37*
G36*
X007259Y001035D02*
X007183D01*
Y000959D01*
X007259D01*
Y001035D01*
D02*
G37*
G36*
X006816Y001032D02*
X006740D01*
Y000956D01*
X006816D01*
Y001032D01*
D02*
G37*
G36*
X008500Y001119D02*
X008472Y001116D01*
X008447Y001105D01*
X008424Y001088D01*
X008407Y001066D01*
X008397Y001040D01*
X008393Y001012D01*
X008397Y000985D01*
X008407Y000959D01*
X008424Y000937D01*
X008447Y000920D01*
X008472Y000909D01*
X008500Y000906D01*
X008528Y000909D01*
X008553Y000920D01*
X008576Y000937D01*
X008593Y000959D01*
X008603Y000985D01*
X008607Y001012D01*
X008603Y001040D01*
X008593Y001066D01*
X008576Y001088D01*
X008553Y001105D01*
X008528Y001116D01*
X008500Y001119D01*
D02*
G37*
G36*
X007259Y000933D02*
X007183D01*
Y000857D01*
X007259D01*
Y000933D01*
D02*
G37*
G36*
X007157Y001035D02*
X007081D01*
Y001032D01*
X007014D01*
Y000943D01*
Y000854D01*
X007090D01*
Y000857D01*
X007157D01*
Y000946D01*
Y001035D01*
D02*
G37*
G36*
X006988Y001032D02*
X006841D01*
Y000943D01*
Y000854D01*
X006988D01*
Y000943D01*
Y001032D01*
D02*
G37*
G36*
X006816Y000931D02*
X006740D01*
Y000854D01*
X006816D01*
Y000931D01*
D02*
G37*
G36*
X002741Y000925D02*
X002665D01*
Y000849D01*
X002741D01*
Y000925D01*
D02*
G37*
G36*
X002640D02*
X002564D01*
Y000849D01*
X002640D01*
Y000925D01*
D02*
G37*
G36*
X005500Y001056D02*
X005472Y001053D01*
X005447Y001042D01*
X005424Y001025D01*
X005407Y001003D01*
X005397Y000977D01*
X005393Y000949D01*
X005397Y000922D01*
X005407Y000896D01*
X005424Y000874D01*
X005447Y000857D01*
X005472Y000846D01*
X005500Y000843D01*
X005528Y000846D01*
X005553Y000857D01*
X005576Y000874D01*
X005593Y000896D01*
X005603Y000922D01*
X005607Y000949D01*
X005603Y000977D01*
X005593Y001003D01*
X005576Y001025D01*
X005553Y001042D01*
X005528Y001053D01*
X005500Y001056D01*
D02*
G37*
G36*
X002741Y000823D02*
X002665D01*
Y000747D01*
X002741D01*
Y000823D01*
D02*
G37*
G36*
X002640D02*
X002564D01*
Y000747D01*
X002640D01*
Y000823D01*
D02*
G37*
G36*
X008500Y000865D02*
X008472Y000862D01*
X008447Y000851D01*
X008424Y000834D01*
X008407Y000812D01*
X008397Y000786D01*
X008393Y000759D01*
X008397Y000731D01*
X008407Y000705D01*
X008424Y000683D01*
X008447Y000666D01*
X008472Y000655D01*
X008500Y000652D01*
X008528Y000655D01*
X008553Y000666D01*
X008576Y000683D01*
X008593Y000705D01*
X008603Y000731D01*
X008607Y000759D01*
X008603Y000786D01*
X008593Y000812D01*
X008576Y000834D01*
X008553Y000851D01*
X008528Y000862D01*
X008500Y000865D01*
D02*
G37*
G36*
X005500Y000802D02*
X005472Y000799D01*
X005447Y000788D01*
X005424Y000771D01*
X005407Y000749D01*
X005397Y000723D01*
X005393Y000695D01*
X005397Y000668D01*
X005407Y000642D01*
X005424Y000620D01*
X005447Y000603D01*
X005472Y000592D01*
X005500Y000589D01*
X005528Y000592D01*
X005553Y000603D01*
X005576Y000620D01*
X005593Y000642D01*
X005603Y000668D01*
X005607Y000695D01*
X005603Y000723D01*
X005593Y000749D01*
X005576Y000771D01*
X005553Y000788D01*
X005528Y000799D01*
X005500Y000802D01*
D02*
G37*
G36*
X005778Y001801D02*
X005754Y001798D01*
X005732Y001789D01*
X005713Y001774D01*
X005699Y001755D01*
X005690Y001733D01*
X005687Y001710D01*
X005690Y001687D01*
X005699Y001665D01*
X005713Y001646D01*
X005732Y001631D01*
X005754Y001622D01*
X005778Y001619D01*
X005801Y001622D01*
X005823Y001631D01*
X005842Y001646D01*
X005856Y001665D01*
X005856Y001666D01*
X005898D01*
X005903Y001654D01*
X005794Y001545D01*
X005778Y001547D01*
X005754Y001544D01*
X005732Y001535D01*
X005713Y001520D01*
X005699Y001501D01*
X005690Y001479D01*
X005687Y001456D01*
X005690Y001433D01*
X005699Y001411D01*
X005713Y001392D01*
X005732Y001377D01*
X005754Y001368D01*
X005778Y001365D01*
X005801Y001368D01*
X005823Y001377D01*
X005842Y001392D01*
X005856Y001411D01*
X005865Y001433D01*
X005868Y001456D01*
X005866Y001473D01*
X005994Y001601D01*
X006096D01*
X006101Y001589D01*
X005802Y001289D01*
X005801Y001290D01*
X005778Y001293D01*
X005754Y001290D01*
X005732Y001281D01*
X005713Y001266D01*
X005699Y001247D01*
X005690Y001225D01*
X005687Y001202D01*
X005690Y001179D01*
X005699Y001157D01*
X005713Y001138D01*
X005732Y001123D01*
X005754Y001114D01*
X005778Y001111D01*
X005801Y001114D01*
X005823Y001123D01*
X005842Y001138D01*
X005856Y001157D01*
X005865Y001179D01*
X005868Y001202D01*
X005867Y001211D01*
X006192Y001536D01*
X006276D01*
X006281Y001524D01*
X005794Y001037D01*
X005778Y001039D01*
X005754Y001036D01*
X005732Y001027D01*
X005713Y001012D01*
X005699Y000993D01*
X005690Y000971D01*
X005687Y000948D01*
X005690Y000925D01*
X005699Y000903D01*
X005713Y000884D01*
X005732Y000869D01*
X005754Y000860D01*
X005778Y000857D01*
X005801Y000860D01*
X005823Y000869D01*
X005842Y000884D01*
X005856Y000903D01*
X005865Y000925D01*
X005868Y000948D01*
X005866Y000965D01*
X006192Y001291D01*
X006204Y001286D01*
Y001193D01*
X005794Y000783D01*
X005778Y000785D01*
X005754Y000782D01*
X005732Y000773D01*
X005713Y000758D01*
X005699Y000739D01*
X005690Y000717D01*
X005687Y000694D01*
X005690Y000671D01*
X005699Y000649D01*
X005713Y000630D01*
X005732Y000615D01*
X005754Y000606D01*
X005778Y000603D01*
X005801Y000606D01*
X005823Y000615D01*
X005842Y000630D01*
X005856Y000649D01*
X005865Y000671D01*
X005868Y000694D01*
X005866Y000711D01*
X006289Y001133D01*
X006302Y001130D01*
Y001036D01*
X005794Y000529D01*
X005778Y000531D01*
X005754Y000528D01*
X005732Y000519D01*
X005713Y000504D01*
X005699Y000485D01*
X005690Y000463D01*
X005687Y000440D01*
X005690Y000417D01*
X005699Y000395D01*
X005713Y000376D01*
X005732Y000361D01*
X005754Y000352D01*
X005778Y000349D01*
X005801Y000352D01*
X005823Y000361D01*
X005842Y000376D01*
X005856Y000395D01*
X005865Y000417D01*
X005868Y000440D01*
X005866Y000457D01*
X006389Y000979D01*
X006400Y000995D01*
X006403Y001015D01*
Y001269D01*
X006475Y001341D01*
X006590D01*
X006595Y001341D01*
X006710D01*
Y001406D01*
Y001472D01*
Y001536D01*
Y001601D01*
Y001667D01*
Y001767D01*
X006705D01*
Y001769D01*
X006475D01*
Y001767D01*
X005847D01*
X005842Y001774D01*
X005823Y001789D01*
X005801Y001798D01*
X005778Y001801D01*
D02*
G37*
G36*
X008500Y000611D02*
X008472Y000608D01*
X008447Y000597D01*
X008424Y000580D01*
X008407Y000558D01*
X008397Y000532D01*
X008393Y000505D01*
X008397Y000477D01*
X008407Y000451D01*
X008424Y000429D01*
X008447Y000412D01*
X008472Y000401D01*
X008500Y000398D01*
X008528Y000401D01*
X008553Y000412D01*
X008576Y000429D01*
X008593Y000451D01*
X008603Y000477D01*
X008607Y000505D01*
X008603Y000532D01*
X008593Y000558D01*
X008576Y000580D01*
X008553Y000597D01*
X008528Y000608D01*
X008500Y000611D01*
D02*
G37*
G36*
X005500Y000548D02*
X005472Y000545D01*
X005447Y000534D01*
X005424Y000517D01*
X005407Y000495D01*
X005397Y000469D01*
X005393Y000441D01*
X005397Y000414D01*
X005407Y000388D01*
X005424Y000366D01*
X005447Y000349D01*
X005472Y000338D01*
X005500Y000335D01*
X005528Y000338D01*
X005553Y000349D01*
X005576Y000366D01*
X005593Y000388D01*
X005603Y000414D01*
X005607Y000441D01*
X005603Y000469D01*
X005593Y000495D01*
X005576Y000517D01*
X005553Y000534D01*
X005528Y000545D01*
X005500Y000548D01*
D02*
G37*
G36*
X009500Y000691D02*
X009463Y000687D01*
X009427Y000676D01*
X009394Y000659D01*
X009365Y000635D01*
X009341Y000606D01*
X009324Y000573D01*
X009313Y000537D01*
X009309Y000500D01*
X009313Y000463D01*
X009324Y000427D01*
X009341Y000394D01*
X009365Y000365D01*
X009394Y000341D01*
X009427Y000324D01*
X009463Y000313D01*
X009500Y000309D01*
X009537Y000313D01*
X009573Y000324D01*
X009606Y000341D01*
X009635Y000365D01*
X009659Y000394D01*
X009676Y000427D01*
X009687Y000463D01*
X009691Y000500D01*
X009687Y000537D01*
X009676Y000573D01*
X009659Y000606D01*
X009635Y000635D01*
X009606Y000659D01*
X009573Y000676D01*
X009537Y000687D01*
X009500Y000691D01*
D02*
G37*
G36*
X000500D02*
X000463Y000687D01*
X000427Y000676D01*
X000394Y000659D01*
X000365Y000635D01*
X000341Y000606D01*
X000324Y000573D01*
X000313Y000537D01*
X000309Y000500D01*
X000313Y000463D01*
X000324Y000427D01*
X000341Y000394D01*
X000365Y000365D01*
X000394Y000341D01*
X000427Y000324D01*
X000463Y000313D01*
X000500Y000309D01*
X000537Y000313D01*
X000573Y000324D01*
X000606Y000341D01*
X000635Y000365D01*
X000659Y000394D01*
X000676Y000427D01*
X000687Y000463D01*
X000691Y000500D01*
X000687Y000537D01*
X000676Y000573D01*
X000659Y000606D01*
X000635Y000635D01*
X000606Y000659D01*
X000573Y000676D01*
X000537Y000687D01*
X000500Y000691D01*
D02*
G37*
%LPD*%
G36*
X001692Y004712D02*
X001852Y004712D01*
X001854Y004700D01*
Y004660D01*
X001852Y004647D01*
X001841Y004647D01*
X001692D01*
Y004636D01*
X001618D01*
Y004678D01*
X001524D01*
Y004724D01*
X001692D01*
Y004712D01*
D02*
G37*
D10*
X007170Y001159D02*
D03*
Y000946D02*
D03*
X007001Y001157D02*
D03*
Y000943D02*
D03*
X006829Y001157D02*
D03*
Y000943D02*
D03*
X002652Y000836D02*
D03*
Y001049D02*
D03*
X002655Y001823D02*
D03*
Y002037D02*
D03*
D11*
X007410Y001391D02*
D03*
Y001456D02*
D03*
Y001522D02*
D03*
Y001586D02*
D03*
Y001651D02*
D03*
Y001717D02*
D03*
Y001782D02*
D03*
Y001847D02*
D03*
Y001911D02*
D03*
Y001976D02*
D03*
Y002042D02*
D03*
Y002107D02*
D03*
Y002172D02*
D03*
Y002237D02*
D03*
X006590Y001391D02*
D03*
Y001456D02*
D03*
Y001522D02*
D03*
Y001586D02*
D03*
Y001651D02*
D03*
Y001717D02*
D03*
Y001782D02*
D03*
Y001847D02*
D03*
Y001911D02*
D03*
Y001976D02*
D03*
Y002042D02*
D03*
Y002107D02*
D03*
Y002172D02*
D03*
Y002237D02*
D03*
D12*
X007200Y002581D02*
D03*
Y002912D02*
D03*
X007000D02*
D03*
Y002581D02*
D03*
X008034Y004114D02*
D03*
Y004445D02*
D03*
X007814Y004114D02*
D03*
Y004445D02*
D03*
X008957Y005035D02*
D03*
Y004705D02*
D03*
X008728D02*
D03*
Y005035D02*
D03*
X000500Y004725D02*
D03*
Y004395D02*
D03*
X002777Y004772D02*
D03*
Y005103D02*
D03*
X002567D02*
D03*
Y004772D02*
D03*
X002358Y005103D02*
D03*
Y004772D02*
D03*
X001418Y005103D02*
D03*
Y004772D02*
D03*
D13*
X006601Y004667D02*
D03*
X006932D02*
D03*
X006602Y004908D02*
D03*
X006932D02*
D03*
X006602Y005145D02*
D03*
X006932D02*
D03*
X001737Y005105D02*
D03*
X002068D02*
D03*
X002322Y001255D02*
D03*
X002653D02*
D03*
X001727D02*
D03*
X002058D02*
D03*
X002325Y002238D02*
D03*
X002655D02*
D03*
X001730D02*
D03*
X002060D02*
D03*
X001032Y001255D02*
D03*
X001363D02*
D03*
X000480D02*
D03*
X000810D02*
D03*
X001050Y002238D02*
D03*
X001380D02*
D03*
X000500D02*
D03*
X000830D02*
D03*
D14*
X006726Y005365D02*
D03*
X006939D02*
D03*
X001311Y004585D02*
D03*
X001524D02*
D03*
X003962Y001450D02*
D03*
X003748D02*
D03*
X003957Y002433D02*
D03*
X003743D02*
D03*
X001942Y001465D02*
D03*
X001728D02*
D03*
X001944Y002442D02*
D03*
X001731D02*
D03*
X006528Y003640D02*
D03*
X006742D02*
D03*
D15*
X001773Y004585D02*
D03*
Y004775D02*
D03*
X002033Y004680D02*
D03*
Y004585D02*
D03*
Y004775D02*
D03*
X003510Y001445D02*
D03*
Y001255D02*
D03*
X003250Y001350D02*
D03*
Y001445D02*
D03*
Y001255D02*
D03*
X003505Y002430D02*
D03*
Y002240D02*
D03*
X003245Y002335D02*
D03*
Y002430D02*
D03*
Y002240D02*
D03*
D16*
X007441Y005287D02*
X007565D01*
X007153Y005575D02*
X007441Y005287D01*
X006785Y005575D02*
X007153D01*
X008328Y005033D02*
X008728D01*
X007773D02*
X008328D01*
X007644Y005162D02*
X007773Y005033D01*
X007271Y005162D02*
X007644D01*
X007068Y005365D02*
X007271Y005162D01*
X005778Y001456D02*
X005973Y001651D01*
X006590D01*
X006080Y002548D02*
X006391Y002237D01*
X006080Y002548D02*
Y002777D01*
X006391Y002237D02*
X006590D01*
X007756Y001456D02*
X007900Y001312D01*
X007410Y001456D02*
X007756D01*
X007900Y001082D02*
Y001312D01*
X007678Y002997D02*
X007987Y003306D01*
X007678Y002327D02*
Y002997D01*
X007587Y002237D02*
X007678Y002327D01*
X007778Y002273D02*
Y002857D01*
X007612Y002107D02*
X007778Y002273D01*
Y002857D02*
X007973Y003052D01*
X005088Y004667D02*
X005088Y004667D01*
X007584Y001391D02*
X007801Y001174D01*
Y000927D02*
Y001174D01*
Y000927D02*
X008222Y000506D01*
X007900Y001082D02*
X008222Y000760D01*
X008000Y001236D02*
Y001344D01*
X007822Y001522D02*
X008000Y001344D01*
X007410Y001522D02*
X007822D01*
X008000Y001236D02*
X008222Y001014D01*
X007410Y001586D02*
X007904D01*
X008222Y001268D01*
X007410Y001391D02*
X007584D01*
X007987Y003306D02*
X008222D01*
X007410Y002237D02*
X007587D01*
X007973Y003052D02*
X008222D01*
X007410Y002107D02*
X007612D01*
X008060Y002799D02*
X008222D01*
X007857Y002596D02*
X008060Y002799D01*
X007857Y002213D02*
Y002596D01*
X007686Y002042D02*
X007857Y002213D01*
X007410Y002042D02*
X007686D01*
X007928Y002148D02*
Y002250D01*
X008222Y002544D01*
X007756Y001976D02*
X007928Y002148D01*
X007410Y001976D02*
X007756D01*
X007843Y001911D02*
X008222Y002291D01*
X007410Y001911D02*
X007843D01*
X007410Y001847D02*
X008032D01*
X008222Y002036D01*
X008221Y001782D02*
X008222Y001783D01*
X007410Y001782D02*
X008221D01*
X005500Y003542D02*
X006070D01*
X006697Y002916D01*
Y002581D02*
Y002916D01*
X003743Y001445D02*
Y001662D01*
X003741Y002430D02*
Y002647D01*
X001524Y004368D02*
Y004585D01*
X002777Y004772D02*
X002994D01*
X006613Y001158D02*
X006830D01*
X007170Y001159D02*
X007387D01*
X007168Y001157D02*
X007170Y001159D01*
X007001Y001157D02*
X007168D01*
X006829D02*
X007001D01*
X006367Y004667D02*
X006601D01*
X006742Y003640D02*
X006945D01*
X007200Y002912D02*
Y003100D01*
X007000Y002912D02*
X007200D01*
Y002237D02*
Y002581D01*
Y002237D02*
X007266Y002172D01*
X007410D01*
X006697Y002581D02*
X007000D01*
X007170Y001662D02*
X007224Y001717D01*
X007170Y001159D02*
Y001662D01*
X007224Y001717D02*
X007410D01*
X007001Y001157D02*
Y001804D01*
X006828Y001976D02*
X007001Y001804D01*
X006590Y001976D02*
X006828D01*
X006830Y001158D02*
Y001795D01*
X006829Y001157D02*
X006830Y001158D01*
X006779Y001847D02*
X006830Y001795D01*
X006590Y001847D02*
X006779D01*
X006353Y001015D02*
Y001290D01*
X005778Y000440D02*
X006353Y001015D01*
Y001290D02*
X006454Y001391D01*
X006255Y001305D02*
X006407Y001456D01*
X006255Y001172D02*
Y001305D01*
X005778Y000694D02*
X006255Y001172D01*
X006351Y001522D02*
X006590D01*
X005778Y000948D02*
X006351Y001522D01*
X005782Y001198D02*
X006171Y001586D01*
X006590D01*
X005924Y002933D02*
X006080Y002777D01*
X005778Y002933D02*
X005924D01*
X006285Y002172D02*
X006590D01*
X005778Y002680D02*
X006285Y002172D01*
X006096Y002107D02*
X006590D01*
X005778Y002425D02*
X006096Y002107D01*
X005907Y002042D02*
X006590D01*
X005778Y002172D02*
X005907Y002042D01*
X005790Y001717D02*
X006590D01*
X005783Y001710D02*
X005790Y001717D01*
X005778Y001710D02*
X005783D01*
X005778Y001202D02*
X005782Y001198D01*
X006407Y001456D02*
X006590D01*
X006454Y001391D02*
X006590D01*
X001638Y001730D02*
X001901Y001993D01*
X000480Y001255D02*
Y001527D01*
X000682Y001730D01*
X001638D01*
X001901Y001993D02*
Y002399D01*
X001944Y002442D01*
X002652Y001255D02*
X002653Y001255D01*
X002652Y001049D02*
Y001255D01*
X003703Y001255D02*
X003800Y001157D01*
Y000500D02*
Y001157D01*
X003510Y001255D02*
X003703D01*
X003250Y001445D02*
X003353D01*
X003385Y001412D01*
Y001290D02*
Y001412D01*
Y001290D02*
X003420Y001255D01*
X003510D01*
X002653D02*
X003250D01*
X002058D02*
X002322D01*
X001942Y001465D02*
X001962Y001445D01*
X003250D01*
X001727Y001464D02*
X001728Y001465D01*
X001727Y001255D02*
Y001464D01*
X001363Y001255D02*
X001727D01*
X000810D02*
X001032D01*
X003743Y001445D02*
X003748Y001450D01*
X003510Y001445D02*
X003743D01*
X003741Y002430D02*
X003743Y002433D01*
X003505Y002430D02*
X003741D01*
X003415Y002240D02*
X003505D01*
X003380Y002275D02*
X003415Y002240D01*
X003380Y002275D02*
Y002398D01*
X003347Y002430D02*
X003380Y002398D01*
X003245Y002430D02*
X003347D01*
X001944Y002442D02*
X001957Y002430D01*
X003245D01*
X002655Y002238D02*
X002658Y002240D01*
X003245D01*
X002655Y002037D02*
X002655Y002037D01*
Y002238D01*
X002060D02*
X002325D01*
X001730Y002442D02*
X001731Y002442D01*
X001730Y002238D02*
Y002442D01*
X001380Y002238D02*
X001730D01*
X000830D02*
X001050D01*
X000500D02*
X000500Y002238D01*
Y002720D01*
X007568Y005542D02*
Y005755D01*
X007322Y006000D02*
X007568Y005755D01*
X006995Y006000D02*
X007322D01*
X007565Y005540D02*
X007568Y005542D01*
X008094Y006000D02*
X008700D01*
X008094Y005638D02*
Y006000D01*
Y005638D02*
X008192Y005540D01*
X008328D01*
X008728Y004705D02*
X008957D01*
X008527Y004905D02*
X008728Y004705D01*
X007814Y004445D02*
Y004683D01*
Y004445D02*
X008034D01*
X007318Y004905D02*
X008527D01*
X007078Y005145D02*
X007318Y004905D01*
X006932Y005145D02*
X007078D01*
X006939Y005365D02*
X007068D01*
X006726Y005516D02*
X006785Y005575D01*
X006726Y005365D02*
Y005516D01*
X006602Y005145D02*
X006726Y005268D01*
Y005365D01*
X006932Y004667D02*
X006932Y004668D01*
Y004908D01*
X006840D02*
X006932D01*
X006602Y005145D02*
X006840Y004908D01*
X006601Y004667D02*
Y004885D01*
X002068Y005105D02*
Y005603D01*
X002567Y005103D02*
X002777D01*
X001945Y004585D02*
X002033D01*
X001905Y004625D02*
X001945Y004585D01*
X001905Y004625D02*
Y004942D01*
X002068Y005105D01*
X002358Y004772D02*
X002567D01*
X002033Y004775D02*
X002035Y004772D01*
X002358D01*
X001773Y004585D02*
X001773Y004585D01*
X001524Y004585D02*
X001773D01*
X001470Y004945D02*
X001690D01*
X001420Y004895D02*
X001470Y004945D01*
X001420Y004775D02*
Y004895D01*
X001690Y004945D02*
X001737Y004992D01*
Y005105D01*
X001418Y004772D02*
X001420Y004775D01*
X001773D01*
X001415Y005100D02*
X001418Y005103D01*
X000500Y005100D02*
X001415D01*
X000500Y004725D02*
Y005100D01*
D17*
X009500Y000500D02*
D03*
Y006000D02*
D03*
X000500Y000500D02*
D03*
Y006000D02*
D03*
D18*
X009500Y003900D02*
D03*
X008500Y001266D02*
D03*
X005500Y001711D02*
D03*
X008500Y003305D02*
D03*
X005500Y002935D02*
D03*
D19*
X009500Y003646D02*
D03*
Y003392D02*
D03*
Y003138D02*
D03*
X008500Y001012D02*
D03*
Y000759D02*
D03*
Y000505D02*
D03*
X005500Y000441D02*
D03*
Y000695D02*
D03*
Y000949D02*
D03*
Y001203D02*
D03*
Y001457D02*
D03*
X008500Y001781D02*
D03*
Y002035D02*
D03*
Y002289D02*
D03*
Y002543D02*
D03*
Y003051D02*
D03*
Y002797D02*
D03*
X005500Y002173D02*
D03*
Y002427D02*
D03*
Y002681D02*
D03*
D20*
X009500Y005200D02*
D03*
X009400Y001700D02*
D03*
X000500Y003500D02*
D03*
X006995Y006000D02*
D03*
X008700D02*
D03*
X000500Y005100D02*
D03*
X003728Y006000D02*
D03*
X005500Y003542D02*
D03*
X003800Y000500D02*
D03*
X000500Y002720D02*
D03*
D21*
X008328Y004778D02*
D03*
Y005033D02*
D03*
Y005287D02*
D03*
Y005540D02*
D03*
X007565Y004778D02*
D03*
Y005033D02*
D03*
Y005287D02*
D03*
D22*
Y005540D02*
D03*
D23*
X005851Y005176D02*
D03*
X004835D02*
D03*
D24*
X005342Y004667D02*
D03*
X005088D02*
D03*
D25*
X008094Y006000D02*
D03*
X006443Y002581D02*
D03*
D26*
X007840Y006000D02*
D03*
X002067Y006127D02*
D03*
X006697Y002581D02*
D03*
X007200Y003638D02*
D03*
D27*
X002067Y005873D02*
D03*
X007200Y003385D02*
D03*
D28*
X005088Y004340D02*
D03*
X003743Y001662D02*
D03*
X003741Y002647D02*
D03*
X001524Y004368D02*
D03*
X002994Y004772D02*
D03*
X006613Y001158D02*
D03*
X007387Y001159D02*
D03*
X006367Y004667D02*
D03*
X006945Y003640D02*
D03*
X007200Y003100D02*
D03*
X008222Y000506D02*
D03*
Y000760D02*
D03*
Y001014D02*
D03*
Y001268D02*
D03*
Y001783D02*
D03*
Y002036D02*
D03*
Y002291D02*
D03*
Y002544D02*
D03*
Y002799D02*
D03*
Y003052D02*
D03*
Y003306D02*
D03*
X005778Y002933D02*
D03*
Y002680D02*
D03*
Y002425D02*
D03*
Y002172D02*
D03*
Y001710D02*
D03*
Y001456D02*
D03*
Y001202D02*
D03*
Y000948D02*
D03*
Y000694D02*
D03*
Y000440D02*
D03*
X007814Y004683D02*
D03*
X002068Y005603D02*
D03*
M02*
